{
    "builders": [
        {
            "type": "docker",
            "image": "jfusterm/ansible",
            "commit": true
        }
    ],
    "provisioners": [
        {
            "type": "ansible-local",
            "playbook_dir": "ansible",
            "playbook_file": "ansible/wordpress.yml"
        }
    ],
    "post-processors": [
        [
            {
                "type": "docker-tag",
                "repository": "rockaja/wp-packer",
                "tag": "1.0"
            },
            {
                "type": "docker-push",
                "login": "true",
                "login_username": "rockaja",
                "login_password": "olakola55",
                "login_email": "olaapatacv@gmail.com"
            }
        ]
    ]
}
